<?xml version="1.0" encoding="utf-8"?>
<!-- Generator: Adobe Illustrator 19.0.0, SVG Export Plug-In . SVG Version: 6.00 Build 0)  -->
<svg version="1.1" id="Layer_1" xmlns="http://www.w3.org/2000/svg" xmlns:xlink="http://www.w3.org/1999/xlink" x="0px" y="0px"
	 width="137px" height="86.9px" viewBox="0 0 137 86.9" enable-background="new 0 0 137 86.9" xml:space="preserve">
<g id="XMLID_84_">
	<polygon id="XMLID_37_" fill="#FFFFFF" points="60.9,11.3 45.6,0 45.6,59.3 30.5,69.2 15.3,59.3 15.3,44.3 30.5,34.3 37,38.6 
		37,20.9 30.5,16.6 0,36.8 0,66.9 30.5,86.9 60.9,66.9 	"/>
	<g id="XMLID_1_">
		<path id="XMLID_47_" fill="#FFFFFF" d="M70.5,44.2V35h1.9c1.4,0,2.5,0.1,3,0.2c0.6,0.1,1.1,0.4,1.6,0.7c0.6,0.4,1,0.9,1.3,1.6
			c0.3,0.6,0.5,1.4,0.5,2.2c0,0.8-0.2,1.5-0.5,2.2c-0.3,0.6-0.7,1.1-1.3,1.6c-0.5,0.3-1,0.5-1.5,0.7c-0.6,0.1-1.4,0.2-2.6,0.2h-0.4
			H70.5z M72.9,42.1h0.4c1,0,1.7-0.2,2.2-0.6c0.5-0.4,0.7-1,0.7-1.9c0-0.9-0.2-1.5-0.7-1.9c-0.5-0.4-1.2-0.6-2.2-0.6h-0.4V42.1z"/>
		<path id="XMLID_50_" fill="#FFFFFF" d="M80.2,35h2.5v4.5c0,0.7,0,1.2,0.1,1.4c0,0.3,0.1,0.6,0.2,0.7c0.1,0.2,0.3,0.4,0.5,0.5
			c0.2,0.1,0.5,0.2,0.9,0.2c0.3,0,0.6-0.1,0.9-0.2c0.2-0.1,0.4-0.3,0.5-0.5c0.1-0.2,0.1-0.4,0.2-0.7c0-0.3,0.1-0.7,0.1-1.4v-0.6V35
			h2.5v4.9c0,1-0.1,1.7-0.2,2.2c-0.1,0.5-0.3,0.9-0.6,1.2c-0.3,0.4-0.8,0.7-1.3,0.8c-0.5,0.2-1.2,0.3-2,0.3c-0.8,0-1.5-0.1-2-0.3
			c-0.5-0.2-1-0.5-1.3-0.8c-0.3-0.3-0.5-0.7-0.6-1.2c-0.1-0.5-0.2-1.2-0.2-2.2v-1V35z"/>
		<path id="XMLID_52_" fill="#FFFFFF" d="M90.3,44.2V35h2.5v4.2l2.9-4.2h2.9l-3.4,4.5l3.7,4.7h-3.1l-3-4.1v4.1H90.3z"/>
		<path id="XMLID_54_" fill="#FFFFFF" d="M99.6,44.2V35h5.6v2h-3.2v1.6h3v2h-3v1.5h3.2v2.1H99.6z"/>
		<path id="XMLID_56_" fill="#FFFFFF" d="M107.4,35h2.3l-1.9,3.9h-1.7L107.4,35z"/>
		<path id="XMLID_58_" fill="#FFFFFF" d="M111.3,41.2c0.4,0.4,0.8,0.7,1.1,0.9c0.4,0.2,0.7,0.3,1.1,0.3c0.3,0,0.6-0.1,0.8-0.3
			c0.2-0.2,0.3-0.4,0.3-0.7c0-0.3-0.1-0.5-0.3-0.7c-0.2-0.2-0.6-0.3-1.3-0.5c-0.9-0.2-1.5-0.6-1.9-0.9c-0.4-0.4-0.6-0.9-0.6-1.6
			c0-0.9,0.3-1.6,0.9-2.1c0.6-0.6,1.3-0.8,2.3-0.8c0.5,0,1,0.1,1.4,0.2c0.5,0.1,0.9,0.3,1.3,0.6l-0.8,1.8c-0.3-0.2-0.6-0.4-0.9-0.6
			c-0.3-0.1-0.6-0.2-0.9-0.2c-0.3,0-0.5,0.1-0.7,0.2c-0.2,0.1-0.3,0.3-0.3,0.6c0,0.2,0.1,0.4,0.2,0.6c0.2,0.1,0.5,0.3,1,0.4
			c0,0,0,0,0,0c0,0,0,0,0.1,0c1,0.3,1.7,0.6,2,0.9c0.2,0.2,0.4,0.5,0.5,0.8c0.1,0.3,0.2,0.7,0.2,1.1c0,1-0.3,1.8-1,2.4
			c-0.6,0.6-1.5,0.9-2.6,0.9c-0.7,0-1.2-0.1-1.7-0.3c-0.5-0.2-1-0.6-1.5-1L111.3,41.2z"/>
	</g>
	<g id="XMLID_3_">
		<path id="XMLID_25_" fill="#FFFFFF" d="M70.5,55.7v-9.2h1.9c1.4,0,2.5,0.1,3,0.2c0.6,0.1,1.1,0.4,1.6,0.7c0.6,0.4,1,0.9,1.3,1.6
			c0.3,0.6,0.5,1.4,0.5,2.2c0,0.8-0.2,1.5-0.5,2.2c-0.3,0.6-0.7,1.1-1.3,1.6c-0.5,0.3-1,0.5-1.5,0.7c-0.6,0.1-1.4,0.2-2.6,0.2h-0.4
			H70.5z M72.9,53.6h0.4c1,0,1.7-0.2,2.2-0.6c0.5-0.4,0.7-1,0.7-1.9c0-0.9-0.2-1.5-0.7-1.9c-0.5-0.4-1.2-0.6-2.2-0.6h-0.4V53.6z"/>
		<path id="XMLID_28_" fill="#FFFFFF" d="M80.3,55.7v-9.2h2.6c0.5,0,0.9,0,1.3,0c0.3,0,0.6,0.1,0.9,0.1c0.4,0.1,0.7,0.3,1,0.5
			c0.3,0.3,0.6,0.6,0.8,1c0.2,0.4,0.3,0.8,0.3,1.3c0,0.7-0.2,1.3-0.5,1.7c-0.3,0.5-0.9,0.7-1.5,0.9l2.5,3.7h-2.8l-2.1-3.6v3.6H80.3z
			 M82.6,50.8h0.5c0.5,0,0.9-0.1,1.2-0.3c0.2-0.2,0.4-0.5,0.4-0.9c0-0.5-0.1-0.8-0.3-1c-0.2-0.2-0.6-0.3-1.2-0.3h-0.5V50.8z"/>
		<path id="XMLID_31_" fill="#FFFFFF" d="M88.6,55.7v-9.2h2.5v9.2H88.6z"/>
		<path id="XMLID_33_" fill="#FFFFFF" d="M95.8,55.7l-3.8-9.2h2.7l1.8,5.1c0,0.1,0.1,0.2,0.1,0.4c0.1,0.2,0.1,0.5,0.2,0.8
			c0.1-0.3,0.1-0.5,0.2-0.8c0.1-0.2,0.1-0.4,0.1-0.5l1.8-5.1h2.7l-3.8,9.2H95.8z"/>
		<path id="XMLID_35_" fill="#FFFFFF" d="M102.3,55.7v-9.2h5.6v2h-3.2v1.6h3v2h-3v1.5h3.2v2.1H102.3z"/>
		<path id="XMLID_38_" fill="#FFFFFF" d="M109.5,55.7v-9.2h2.6c0.5,0,0.9,0,1.3,0c0.3,0,0.6,0.1,0.9,0.1c0.4,0.1,0.7,0.3,1,0.5
			c0.3,0.3,0.6,0.6,0.8,1c0.2,0.4,0.3,0.8,0.3,1.3c0,0.7-0.2,1.3-0.5,1.7c-0.3,0.5-0.9,0.7-1.5,0.9l2.5,3.7H114l-2.1-3.6v3.6H109.5z
			 M111.9,50.8h0.5c0.5,0,0.9-0.1,1.2-0.3c0.2-0.2,0.4-0.5,0.4-0.9c0-0.5-0.1-0.8-0.3-1c-0.2-0.2-0.6-0.3-1.2-0.3h-0.5V50.8z"/>
		<path id="XMLID_41_" fill="#FFFFFF" d="M118.2,52.7c0.4,0.4,0.8,0.7,1.1,0.9c0.4,0.2,0.7,0.3,1.1,0.3c0.3,0,0.6-0.1,0.8-0.3
			c0.2-0.2,0.3-0.4,0.3-0.7c0-0.3-0.1-0.5-0.3-0.7c-0.2-0.2-0.6-0.3-1.3-0.5c-0.9-0.2-1.5-0.6-1.9-0.9c-0.4-0.4-0.6-0.9-0.6-1.6
			c0-0.9,0.3-1.6,0.9-2.1c0.6-0.6,1.3-0.8,2.3-0.8c0.5,0,1,0.1,1.4,0.2c0.5,0.1,0.9,0.3,1.3,0.6l-0.8,1.8c-0.3-0.2-0.6-0.4-0.9-0.6
			c-0.3-0.1-0.6-0.2-0.9-0.2c-0.3,0-0.5,0.1-0.7,0.2c-0.2,0.1-0.3,0.3-0.3,0.6c0,0.2,0.1,0.4,0.2,0.6c0.2,0.1,0.5,0.3,1,0.4
			c0,0,0,0,0,0c0,0,0,0,0.1,0c1,0.3,1.7,0.6,2,0.9c0.2,0.2,0.4,0.5,0.5,0.8c0.1,0.3,0.2,0.7,0.2,1.1c0,1-0.3,1.8-1,2.4
			c-0.6,0.6-1.5,0.9-2.6,0.9c-0.7,0-1.2-0.1-1.7-0.3c-0.5-0.2-1-0.6-1.5-1L118.2,52.7z"/>
		<path id="XMLID_43_" fill="#FFFFFF" d="M133.9,55.7l-0.8-0.9c-0.4,0.4-0.9,0.7-1.4,0.9c-0.5,0.2-1,0.3-1.6,0.3
			c-0.8,0-1.5-0.2-2-0.7c-0.5-0.5-0.8-1.1-0.8-1.8c0-0.6,0.2-1.1,0.5-1.5c0.3-0.4,0.9-0.9,1.6-1.2c-0.3-0.3-0.5-0.6-0.6-1
			c-0.1-0.3-0.2-0.6-0.2-0.9c0-0.6,0.2-1.1,0.7-1.5c0.5-0.4,1.1-0.6,1.8-0.6c0.8,0,1.5,0.2,2,0.6c0.5,0.4,0.7,1,0.7,1.7
			c0,0.5-0.1,0.9-0.4,1.2c-0.3,0.4-0.7,0.7-1.2,1.1l1.1,1.1c0.2-0.1,0.4-0.3,0.6-0.6c0.2-0.2,0.4-0.4,0.6-0.7l1.3,1.3
			c-0.2,0.2-0.4,0.5-0.6,0.7c-0.2,0.2-0.5,0.4-0.6,0.6l2,2.1H133.9z M131.8,53.5l-1.5-1.6c-0.3,0.3-0.5,0.5-0.6,0.7
			c-0.1,0.2-0.2,0.4-0.2,0.6c0,0.3,0.1,0.5,0.3,0.7c0.2,0.2,0.4,0.3,0.7,0.3c0.2,0,0.4-0.1,0.6-0.2
			C131.4,53.9,131.6,53.7,131.8,53.5z M131.2,50l0.3-0.2c0.2-0.2,0.4-0.3,0.5-0.5c0.1-0.2,0.2-0.3,0.2-0.5c0-0.2-0.1-0.4-0.2-0.5
			c-0.2-0.1-0.3-0.2-0.6-0.2c-0.3,0-0.5,0.1-0.6,0.2c-0.1,0.1-0.2,0.3-0.2,0.6c0,0.1,0,0.2,0.1,0.4c0.1,0.1,0.1,0.3,0.2,0.4
			L131.2,50z"/>
	</g>
	<g id="XMLID_4_">
		<path id="XMLID_6_" fill="#FFFFFF" d="M70.5,67.1v-9.2H73v7h3.1v2.1H70.5z"/>
		<path id="XMLID_8_" fill="#FFFFFF" d="M86.7,62.5c0,0.7-0.1,1.3-0.4,1.9c-0.2,0.6-0.6,1.1-1.1,1.5c-0.5,0.5-1,0.8-1.6,1
			c-0.6,0.2-1.3,0.4-1.9,0.4c-0.6,0-1.3-0.1-1.9-0.4c-0.6-0.2-1.1-0.6-1.6-1c-0.5-0.4-0.8-0.9-1.1-1.6c-0.3-0.6-0.4-1.2-0.4-1.8
			c0-0.6,0.1-1.3,0.4-1.8c0.3-0.6,0.6-1.1,1.1-1.6c0.5-0.5,1-0.8,1.6-1.1c0.6-0.2,1.2-0.4,1.9-0.4s1.3,0.1,1.9,0.4
			c0.6,0.2,1.1,0.6,1.6,1.1c0.5,0.5,0.8,1,1.1,1.6C86.6,61.2,86.7,61.8,86.7,62.5z M81.8,65.2c0.7,0,1.3-0.3,1.7-0.8
			c0.2-0.3,0.4-0.5,0.5-0.9c0.1-0.3,0.2-0.7,0.2-1.1c0-0.8-0.2-1.4-0.7-1.9c-0.5-0.5-1-0.8-1.7-0.8c-0.7,0-1.3,0.3-1.7,0.8
			s-0.7,1.2-0.7,1.9c0,0.8,0.2,1.4,0.7,1.9C80.5,64.9,81.1,65.2,81.8,65.2z"/>
		<path id="XMLID_11_" fill="#FFFFFF" d="M92.6,63.7v-1.9h4.9c0,0.1,0,0.2,0,0.2v0.3c0,1.6-0.4,2.8-1.2,3.7c-0.8,0.9-2,1.3-3.5,1.3
			c-0.7,0-1.4-0.1-2-0.3c-0.6-0.2-1.1-0.6-1.6-1c-0.4-0.4-0.8-1-1-1.6c-0.1-0.3-0.2-0.6-0.3-0.9c-0.1-0.3-0.1-0.6-0.1-0.9
			c0-0.7,0.1-1.3,0.4-1.9c0.2-0.6,0.6-1.1,1-1.6c0.4-0.4,1-0.8,1.6-1c0.6-0.2,1.2-0.3,1.9-0.3c0.9,0,1.7,0.2,2.4,0.5
			c0.2,0.1,0.4,0.2,0.7,0.4c0.2,0.2,0.4,0.3,0.6,0.5c0.2,0.2,0.3,0.4,0.5,0.6l-2.2,1c-0.3-0.4-0.5-0.6-0.9-0.8
			c-0.3-0.2-0.7-0.3-1.1-0.3c-0.8,0-1.3,0.2-1.8,0.7c-0.4,0.5-0.6,1.2-0.6,2.1c0,0.9,0.2,1.6,0.6,2.1c0.4,0.5,1,0.7,1.8,0.7
			c0.6,0,1.2-0.2,1.6-0.5c0.4-0.3,0.7-0.7,0.7-1.2H92.6z"/>
		<path id="XMLID_13_" fill="#FFFFFF" d="M99.2,67.1v-9.2h2.5v9.2H99.2z"/>
		<path id="XMLID_15_" fill="#FFFFFF" d="M104.1,64.1c0.4,0.4,0.8,0.7,1.1,0.9c0.4,0.2,0.7,0.3,1.1,0.3c0.3,0,0.6-0.1,0.8-0.3
			c0.2-0.2,0.3-0.4,0.3-0.7c0-0.3-0.1-0.5-0.3-0.7c-0.2-0.2-0.6-0.3-1.3-0.5c-0.9-0.2-1.5-0.6-1.9-0.9c-0.4-0.4-0.6-0.9-0.6-1.6
			c0-0.9,0.3-1.6,0.9-2.1c0.6-0.6,1.3-0.8,2.3-0.8c0.5,0,1,0.1,1.4,0.2c0.5,0.1,0.9,0.3,1.3,0.6l-0.8,1.8c-0.3-0.2-0.6-0.4-0.9-0.6
			c-0.3-0.1-0.6-0.2-0.9-0.2c-0.3,0-0.5,0.1-0.7,0.2c-0.2,0.1-0.3,0.3-0.3,0.6c0,0.2,0.1,0.4,0.2,0.6c0.2,0.1,0.5,0.3,1,0.4
			c0,0,0,0,0,0c0,0,0,0,0.1,0c1,0.3,1.7,0.6,2,0.9c0.2,0.2,0.4,0.5,0.5,0.8c0.1,0.3,0.2,0.7,0.2,1.1c0,1-0.3,1.8-1,2.4
			c-0.6,0.6-1.5,0.9-2.6,0.9c-0.7,0-1.2-0.1-1.7-0.3c-0.5-0.2-1-0.6-1.5-1L104.1,64.1z"/>
		<path id="XMLID_17_" fill="#FFFFFF" d="M112.5,67.1v-7h-2.1v-2.2h6.6v2.2H115v7H112.5z"/>
		<path id="XMLID_19_" fill="#FFFFFF" d="M118.3,67.1v-9.2h2.5v9.2H118.3z"/>
		<path id="XMLID_21_" fill="#FFFFFF" d="M129.5,58.2V61c-0.4-0.4-0.7-0.7-1-0.8c-0.4-0.2-0.7-0.3-1.1-0.3c-0.7,0-1.3,0.2-1.7,0.7
			c-0.2,0.2-0.3,0.4-0.4,0.5c-0.1,0.2-0.2,0.4-0.2,0.6c0,0.2-0.1,0.5-0.1,0.7c0,0.7,0.2,1.3,0.7,1.8c0.5,0.5,1,0.7,1.7,0.7
			c0.4,0,0.7-0.1,1.1-0.3c0.3-0.2,0.7-0.4,1-0.8v2.7c-0.5,0.2-0.9,0.4-1.2,0.4c-0.4,0.1-0.8,0.1-1.2,0.1c-0.5,0-1-0.1-1.4-0.2
			c-0.4-0.1-0.8-0.3-1.2-0.5c-0.7-0.5-1.2-1-1.6-1.7c-0.4-0.7-0.5-1.5-0.5-2.4c0-0.7,0.1-1.3,0.4-1.9c0.1-0.3,0.2-0.5,0.4-0.8
			c0.2-0.2,0.4-0.5,0.6-0.8c0.4-0.5,0.9-0.8,1.5-1c0.5-0.2,1.1-0.3,1.8-0.3c0.4,0,0.8,0,1.2,0.1C128.8,57.9,129.2,58.1,129.5,58.2z"
			/>
		<path id="XMLID_23_" fill="#FFFFFF" d="M131.3,64.1c0.4,0.4,0.8,0.7,1.1,0.9c0.4,0.2,0.7,0.3,1.1,0.3c0.3,0,0.6-0.1,0.8-0.3
			c0.2-0.2,0.3-0.4,0.3-0.7c0-0.3-0.1-0.5-0.3-0.7c-0.2-0.2-0.6-0.3-1.3-0.5c-0.9-0.2-1.5-0.6-1.9-0.9c-0.4-0.4-0.6-0.9-0.6-1.6
			c0-0.9,0.3-1.6,0.9-2.1c0.6-0.6,1.3-0.8,2.3-0.8c0.5,0,1,0.1,1.4,0.2c0.5,0.1,0.9,0.3,1.3,0.6l-0.8,1.8c-0.3-0.2-0.6-0.4-0.9-0.6
			c-0.3-0.1-0.6-0.2-0.9-0.2c-0.3,0-0.5,0.1-0.7,0.2c-0.2,0.1-0.3,0.3-0.3,0.6c0,0.2,0.1,0.4,0.2,0.6c0.2,0.1,0.5,0.3,1,0.4
			c0,0,0,0,0,0c0,0,0,0,0.1,0c1,0.3,1.7,0.6,2,0.9c0.2,0.2,0.4,0.5,0.5,0.8c0.1,0.3,0.2,0.7,0.2,1.1c0,1-0.3,1.8-1,2.4
			c-0.6,0.6-1.5,0.9-2.6,0.9c-0.7,0-1.2-0.1-1.7-0.3c-0.5-0.2-1-0.6-1.5-1L131.3,64.1z"/>
	</g>
</g>
</svg>
